/home/eswar/Desktop/RND/samza-job/deploy/yarn/bin/yarn: line 386: /home/eswar/Desktop/RND/samza-job/deploy/yarn/ /usr/lib/jvm/java-8-openjdk-amd64/jre/bin/java: No such file or directory
ulimit -a
core file size          (blocks, -c) 0
data seg size           (kbytes, -d) unlimited
scheduling priority             (-e) 0
file size               (blocks, -f) unlimited
pending signals                 (-i) 15413
max locked memory       (kbytes, -l) 65536
max memory size         (kbytes, -m) unlimited
open files                      (-n) 1024
pipe size            (512 bytes, -p) 8
POSIX message queues     (bytes, -q) 819200
real-time priority              (-r) 0
stack size              (kbytes, -s) 8192
cpu time               (seconds, -t) unlimited
max user processes              (-u) 15413
virtual memory          (kbytes, -v) unlimited
file locks                      (-x) unlimited
